{
    "corridoio": [
        {"type": "light-button", "id": "14:0:2"}
        {"type": "tag", "id": "A4:34:F1:F3:63:C0"}
    ],
    "ingresso": [
        {"type": "valve", "id": "5:1:1"},
        {"type": "light-button", "id": "14:0:1"},
        {"type": "tag", "id": "24:71:89:58:79:84"},
        {"type": "door", "id": "17:9:1"}
    ],
    "doccia": [
        {"type": "light-button", "id": "15:0:1"}
    ],
    "bagno": [
        {"type": "valve", "id": "6:1:1"},
        {"type": "light-button", "id": "15:0:2"},
        {"type": "tag", "id": "24:71:89:58:AD:00"}
    ],
    "wc": [
        {"type": "valve", "id": "10:1:1"},
        {"type": "tag", "id": "A4:34:F1:F3:5F:89"}
    ],
    "cucina": [
        {"type": "valve", "id": "4:1:1"},
        {"type": "light-switch", "id": "13:0:1"},
        {"type": "tag", "id": "24:71:89:08:CC:04"}
    ],
    "camera": [
        {"type": "valve", "id": "2:1:1"},
        {"type": "light-button", "id": "11:0:1"},
        {"type": "tag", "id": "24:71:89:58:D4:82"}
    ],
    "cameretta": [
        {"type": "valve", "id": "3:1:1"},
        {"type": "tag", "id": "24:71:89:58:E1:03"},
        {"type": "light-button", "id": "12:0:1"}
    ],
    "sala": [
        {"type": "light-button", "id": "16:0:1"}

    ],
    "salotto": [
        {"type": "valve", "id": "7:1:1"},
        {"type": "light-button", "id": "16:0:2"},
        {"type": "valve", "id": "8:1:1"},
        {"type": "valve", "id": "9:1:1"},
        {"type": "tag", "id": "24:71:89:58:81:81"},
        {"type": "tag", "id": "24:71:89:58:A0:05"}
    ],
    "ripostiglio": [
    ]
}